<?xml version="1.0" encoding="UTF-8" standalone="no" ?>
<gpx version="1.1" creator="http://www.geoplaner.com" xmlns:xsi="http://www.w3.org/2001/XMLSchema-instance" xmlns="http://www.topografix.com/GPX/1/1" xsi:schemaLocation="http://www.topografix.com/GPX/1/1 http://www.topografix.com/GPX/1/1/gpx.xsd">
<rte>
<name>Route1</name>
<rtept lat="54.97919" lon="73.38096">
<ele>87.2</ele>
<name>WP01-A</name>
</rtept>
<rtept lat="54.97879" lon="73.38098">
<ele>87</ele>
<name>WP02-B</name>
</rtept>
<rtept lat="54.97838" lon="73.38109">
<ele>87</ele>
<name>WP03-C</name>
</rtept>
<rtept lat="54.97808" lon="73.38113">
<ele>87</ele>
<name>WP04-D</name>
</rtept>
<rtept lat="54.97772" lon="73.38137">
<ele>87</ele>
<name>WP05-E</name>
</rtept>
<rtept lat="54.97777" lon="73.38205">
<ele>86.9</ele>
<name>WP06-F</name>
</rtept>
<rtept lat="54.97788" lon="73.3827">
<ele>87.3</ele>
<name>WP07-G</name>
</rtept>
<rtept lat="54.97797" lon="73.38328">
<ele>88</ele>
<name>WP08-H</name>
</rtept>
<rtept lat="54.97858" lon="73.38332">
<ele>89.1</ele>
<name>WP09-I</name>
</rtept>
<rtept lat="54.97901" lon="73.38375">
<ele>91</ele>
<name>WP10-J</name>
</rtept>
<rtept lat="54.97901" lon="73.38441">
<ele>90.2</ele>
<name>WP11-K</name>
</rtept>
<rtept lat="54.97944" lon="73.38503">
<ele>91.2</ele>
<name>WP12-L</name>
</rtept>
<rtept lat="54.98008" lon="73.38493">
<ele>92.5</ele>
<name>WP13-M</name>
</rtept>
<rtept lat="54.98064" lon="73.38493">
<ele>93</ele>
<name>WP14-N</name>
</rtept>
<rtept lat="54.98096" lon="73.38411">
<ele>92.5</ele>
<name>WP15-O</name>
</rtept>
<rtept lat="54.98093" lon="73.38336">
<ele>91.5</ele>
<name>WP16-P</name>
</rtept>
<rtept lat="54.98093" lon="73.38248">
<ele>89.4</ele>
<name>WP17-Q</name>
</rtept>
</rte>
</gpx>